<svg width="32" height="32" viewBox="0 0 32 32" fill="none" xmlns="http://www.w3.org/2000/svg">
<rect width="32" height="32" rx="16" fill="#F0F0F0"/>
<path d="M25.3327 17.3332H17.3327V25.3332H14.666V17.3332H6.66602V14.6666H14.666V6.66656H17.3327V14.6666H25.3327V17.3332Z" fill="#212121"/>
</svg>
