<svg width="7" height="10" viewBox="0 0 7 10" fill="none" xmlns="http://www.w3.org/2000/svg">
  <path fill-rule="evenodd" clip-rule="evenodd" d="M6.82539 1.175L5.65039 0L0.650391 5L5.65039 10L6.82539 8.825L3.00872 5L6.82539 1.175Z" fill="black" fill-opacity="0.6"/>
</svg>
