<svg
  width="79"
  height="28"
  viewBox="0 0 79 28"
  fill="none"
  xmlns="http://www.w3.org/2000/svg">
  <path fill-rule="evenodd" clip-rule="evenodd" d="M7.59697 0.0453079C6.39005 0.181545 5.08298 0.626894 3.99249 1.27351C3.27479 1.69906 2.34578 2.50839 1.81596 3.16967C1.28307 3.83483 0.74438 4.78391 0.480462 5.52261C0.304827 6.01416 0.12017 6.79876 0.0502039 7.35052C-0.0310408 7.99142 -0.0107764 9.22875 0.0900308 9.78125C0.421115 11.5957 1.14788 13.0137 2.38444 14.258C3.35685 15.2365 4.38701 15.8843 5.67483 16.3271C6.83232 16.7251 7.48072 16.8186 8.88876 16.7904C9.76958 16.7728 9.94836 16.7582 10.3583 16.6707C10.8596 16.5636 11.3768 16.4117 11.8751 16.225C12.9853 15.8091 14.0344 15.1217 14.9065 14.2385L15.2156 13.9256L15.6454 14.3433C16.638 15.3078 17.644 15.9215 18.9399 16.3528C19.9031 16.6735 20.3918 16.7634 21.316 16.7899L22.0841 16.8118V14.9008V12.9898L21.7244 12.9893C20.8481 12.9881 19.8182 12.6029 19.0519 11.9898C18.488 11.5386 18.0565 11.0019 17.7455 10.3646C17.3965 9.64968 17.2621 9.03383 17.2615 8.1478C17.2606 6.89397 16.8512 5.42787 16.1692 4.23631C14.8654 1.95839 12.5002 0.421507 9.7422 0.0599706C9.24127 -0.00571738 8.11688 -0.0133796 7.59697 0.0453079ZM64.2427 0.02703C63.159 0.143083 62.0124 0.48494 61.0583 0.976452C58.4838 2.30266 56.8469 4.69407 56.5393 7.57842C56.4759 8.17288 56.5124 9.21779 56.6176 9.82014C57.2275 13.3121 59.7938 15.8992 63.4155 16.6732C63.8956 16.7758 63.9526 16.7794 65.1372 16.7805C66.2662 16.7817 66.3973 16.7747 66.8095 16.6916C68.8757 16.2754 70.4916 15.3505 71.7024 13.8914C73.0021 12.3249 73.6564 10.5707 73.8081 8.24503C73.8928 6.94784 74.3319 5.99647 75.2538 5.11328C76.0779 4.32374 77.0583 3.89352 78.1914 3.82418L78.5937 3.79956V1.89978V0L78.1172 0.000778592C76.6686 0.0030732 75.0496 0.466272 73.715 1.26024C73.2293 1.54925 72.5773 2.05811 72.1449 2.48568C71.9267 2.70145 71.7439 2.87779 71.7387 2.87755C71.7335 2.87728 71.5429 2.69562 71.315 2.47382C69.9447 1.13991 68.1805 0.297054 66.2616 0.059465C65.8246 0.00536672 64.6249 -0.0139229 64.2427 0.02703ZM33.9461 2.23627V4.2003H36.1823H38.4186V10.5202V16.8401H40.4604H42.5022V10.5202V4.2003H44.7385H46.9748V2.23627V0.272242H40.4604H33.9461V2.23627ZM30.8542 0.372193C29.139 0.634479 27.698 1.26083 26.4889 2.2696C25.1047 3.42441 24.1623 4.9061 23.7193 6.6243C23.4794 7.55478 23.4807 7.52231 23.4835 12.3276C23.4849 14.7334 23.4998 16.7156 23.5166 16.7324C23.5334 16.7493 24.4474 16.7585 25.5478 16.7529L27.5484 16.7429L27.5702 12.4453C27.5939 7.80341 27.5834 8.03338 27.8029 7.33107C28.2162 6.00895 29.4109 4.80001 30.7375 4.36154C31.1651 4.22021 31.7243 4.12251 32.1056 4.12251H32.3904V2.21682V0.311133L31.7973 0.314905C31.4711 0.316966 31.0467 0.342752 30.8542 0.372193ZM55.0059 0.372193C52.9296 0.689705 51.3034 1.51549 49.9099 2.95981C49.4614 3.42468 49.2677 3.66954 48.8976 4.23962C48.1395 5.40734 47.6599 6.95359 47.6252 8.34226C47.6204 8.53477 47.6209 10.5082 47.6262 12.7276L47.6359 16.763L49.668 16.7529L51.7001 16.7429L51.7214 12.4259C51.7409 8.47414 51.7485 8.08464 51.8116 7.82189C52.1283 6.50183 52.893 5.45167 54.0485 4.74984C54.6565 4.3806 55.3255 4.18081 56.1046 4.13585L56.5421 4.11061V2.21087V0.311133L55.949 0.314905C55.6228 0.316966 55.1984 0.342752 55.0059 0.372193ZM8.06367 3.85451C7.09951 3.99343 6.01642 4.56491 5.35689 5.28265C4.51298 6.20104 4.10478 7.22482 4.10594 8.42004C4.10668 9.18438 4.25287 9.78117 4.60764 10.4681C5.26522 11.7413 6.49754 12.6653 7.89049 12.9295C10.0669 13.3424 12.4211 11.7867 13.0008 9.55268C13.2372 8.64196 13.2096 7.84079 12.9116 6.95993C12.2293 4.94282 10.0773 3.56434 8.06367 3.85451ZM64.6121 3.85568C64.2783 3.89795 64.0177 3.96928 63.562 4.14324C62.1252 4.69169 61.0169 6.00674 60.7062 7.53164C60.6171 7.9689 60.5985 8.67649 60.6652 9.08773C60.9152 10.6278 61.9477 11.9619 63.3884 12.6062C64.0748 12.9132 64.343 12.9689 65.1372 12.9697C65.7637 12.9703 65.8485 12.9618 66.2047 12.8622C67.5894 12.4755 68.7526 11.4578 69.3202 10.1366C70.0362 8.47001 69.6566 6.55892 68.3457 5.23011C67.9401 4.81899 67.5804 4.55534 67.1012 4.31798C66.2383 3.8906 65.4673 3.7474 64.6121 3.85568ZM41.3561 21.7477C41.1692 22.0084 41.0075 22.2446 40.9967 22.2727C40.9823 22.3102 41.0233 22.3238 41.1507 22.3238C41.3229 22.3238 41.3275 22.3201 41.7771 21.8347C42.0262 21.5657 42.23 21.3294 42.23 21.3097C42.23 21.2899 42.1098 21.2737 41.9629 21.2737H41.6959L41.3561 21.7477ZM27.115 22.5992C26.4803 22.8433 26.1358 23.6038 26.0681 24.9101C26.0376 25.4995 26.0978 26.2734 26.2074 26.7021C26.3669 27.3258 26.7305 27.8076 27.1457 27.9455C27.4197 28.0365 27.9127 28.0093 28.1431 27.8904C28.5347 27.6884 28.834 27.2017 28.9784 26.5324C29.0464 26.2175 29.0603 26.0155 29.0621 25.3185C29.0645 24.4194 29.0242 24.0584 28.871 23.6082C28.6229 22.8787 28.1824 22.515 27.5536 22.5203C27.4139 22.5215 27.2322 22.5542 27.115 22.5992ZM34.111 22.6009C33.6935 22.7613 33.3721 23.2103 33.2095 23.86C32.9985 24.7033 33.0276 26.1206 33.2718 26.8936C33.4383 27.4201 33.7715 27.8211 34.1462 27.9455C34.4184 28.0359 34.9133 28.0093 35.1406 27.8919C35.8132 27.5449 36.1272 26.5666 36.073 24.9879C36.034 23.8552 35.8408 23.2349 35.4019 22.8338C35.0572 22.5188 34.5587 22.4289 34.111 22.6009ZM38.0529 22.5843C37.9365 22.6244 37.7762 22.7297 37.6415 22.8544C37.2217 23.243 37.0325 23.8773 36.9933 25.0268C36.9452 26.4394 37.2123 27.4103 37.7522 27.7844C37.986 27.9465 38.1707 27.9985 38.5158 27.9994C38.8809 28.0004 39.0964 27.9205 39.3228 27.7003C39.4031 27.6222 39.4701 27.5663 39.4718 27.576C39.4735 27.5857 39.4954 27.6724 39.5204 27.7686C39.5658 27.9434 39.5662 27.9436 39.7409 27.9436H39.9159L39.9262 26.6894L39.9365 25.4351H39.2748H38.6131V25.6879V25.9407H38.9825H39.352V26.3615C39.352 26.8724 39.2871 27.1209 39.11 27.2887C38.945 27.4449 38.7371 27.5091 38.4608 27.4891C38.1443 27.4662 37.9824 27.354 37.8362 27.0564C37.6668 26.7116 37.603 26.3319 37.5771 25.5129C37.534 24.1545 37.7267 23.3422 38.1483 23.1052C38.3271 23.0048 38.6424 22.9972 38.8353 23.0888C39.0886 23.2089 39.2589 23.5507 39.3318 24.0853L39.3573 24.2717L39.6366 24.2603L39.9159 24.2489L39.9039 24.0934C39.8974 24.0078 39.866 23.8328 39.8343 23.7045C39.6447 22.9384 39.2295 22.5562 38.5589 22.5306C38.337 22.5221 38.1871 22.538 38.0529 22.5843ZM49.211 22.5908C48.9833 22.6946 48.7786 22.9415 48.702 23.205C48.5887 23.5947 48.6703 24.1542 48.9428 24.857L49.0127 25.0372L48.7511 25.3198C48.5773 25.5075 48.4344 25.7136 48.3252 25.9339C48.1649 26.2576 48.161 26.2747 48.1611 26.6573C48.1613 26.9993 48.1745 27.0771 48.2641 27.2688C48.3894 27.5365 48.6055 27.7596 48.8626 27.8866C49.0301 27.9694 49.1093 27.982 49.4638 27.9822C49.9485 27.9826 50.127 27.9179 50.4344 27.6304L50.6296 27.4478L50.8679 27.6429C50.9989 27.7502 51.1473 27.86 51.1976 27.887C51.3068 27.9454 51.3474 27.9192 51.5092 27.6858L51.6193 27.5268L51.5041 27.4449C51.4408 27.3997 51.294 27.2726 51.1779 27.1624L50.9668 26.9619L51.0514 26.765C51.1634 26.5048 51.2838 25.9922 51.3157 25.6405L51.3414 25.3574H51.085H50.8286L50.8064 25.5032C50.7454 25.9036 50.6622 26.3091 50.6197 26.4133L50.5722 26.5296L50.3664 26.2588C50.1506 25.975 49.6583 25.179 49.6583 25.114C49.6583 25.0932 49.7976 24.929 49.9679 24.7491C50.3819 24.3117 50.5224 24.0241 50.545 23.5674C50.5591 23.2838 50.5489 23.2092 50.4745 23.051C50.2675 22.6105 49.6565 22.388 49.211 22.5908ZM66.2969 22.5774C66.0271 22.6638 65.7125 22.97 65.5447 23.3094C65.3049 23.7946 65.238 24.2216 65.2388 25.2601C65.2396 26.2893 65.3046 26.7116 65.5374 27.1995C65.7939 27.7369 66.118 27.9666 66.6585 27.994C66.9608 28.0093 67.0169 28.0005 67.232 27.904C67.814 27.6428 68.1257 26.9753 68.2079 25.8143C68.2986 24.5324 68.0779 23.3907 67.6472 22.914C67.3446 22.5791 66.7525 22.4315 66.2969 22.5774ZM0.312646 22.8391L0.324235 23.0822L0.858682 23.093L1.39317 23.1038L1.40316 25.5237L1.4132 27.9436L1.69517 27.9551L1.97713 27.9665V25.5341V23.1016H2.52161H3.0661V22.8488V22.596H1.68358H0.301096L0.312646 22.8391ZM3.84393 25.2781V27.9665L4.12589 27.9551L4.40786 27.9436L4.41813 26.688L4.42839 25.4323L4.80175 25.4435L5.17515 25.4546L5.58876 26.661C5.81628 27.3246 6.01657 27.889 6.03388 27.9153C6.06585 27.9638 6.5698 27.9856 6.61503 27.9403C6.62752 27.9278 6.53301 27.6172 6.40494 27.25C6.10707 26.3958 5.74732 25.3073 5.75957 25.2972C5.76479 25.2929 5.82698 25.26 5.8978 25.224C6.39639 24.9703 6.66952 24.37 6.57183 23.7425C6.49844 23.2711 6.23782 22.922 5.8125 22.7254C5.57744 22.6168 5.56422 22.6153 4.70927 22.6025L3.84393 22.5896V25.2781ZM8.49284 22.6433C8.48366 22.6708 8.41296 22.982 8.33572 23.335C7.97325 24.991 7.46043 27.3076 7.40586 27.5353C7.30085 27.9737 7.29809 27.9684 7.62614 27.9551L7.90811 27.9436L8.06367 27.1658L8.21924 26.388L8.90085 26.3774L9.58251 26.3668L9.73807 27.1552L9.89368 27.9436L10.1746 27.9551C10.4389 27.9658 10.4555 27.9616 10.4555 27.8836C10.4555 27.838 10.3075 27.1328 10.1266 26.3165C9.94575 25.5002 9.72695 24.5085 9.64038 24.1128C9.55385 23.7171 9.44331 23.2183 9.39478 23.0044L9.30653 22.6155L8.90805 22.6044C8.61006 22.5961 8.50533 22.6059 8.49284 22.6433ZM11.2341 24.6087C11.2345 25.7157 11.2507 26.7306 11.27 26.8641C11.3384 27.3372 11.5915 27.71 11.9684 27.8932C12.1052 27.9596 12.236 27.9837 12.5239 27.9955C13.0528 28.017 13.2801 27.9423 13.5736 27.6503C13.7606 27.4642 13.808 27.3869 13.8847 27.1427C13.9748 26.856 13.9752 26.8453 13.9752 24.7351V22.6155L13.6959 22.6041L13.4166 22.5927L13.4014 24.7237C13.3846 27.0724 13.3873 27.0456 13.1398 27.3058C13.0334 27.4176 12.961 27.4561 12.8157 27.4779C12.2811 27.5581 11.9858 27.3737 11.8717 26.8887C11.8296 26.7098 11.8178 26.2195 11.8173 24.6281L11.8167 22.596H11.525H11.2333L11.2341 24.6087ZM15.0836 25.2814V27.9666L15.3461 27.9552L15.6087 27.9436L15.6285 25.5324C15.6395 24.2062 15.6526 23.1359 15.6577 23.1541C15.6628 23.1723 15.7988 23.7761 15.96 24.4959C16.1212 25.2157 16.3624 26.2859 16.4962 26.8741L16.7393 27.9436H16.9307H17.122L17.342 26.9714C17.4631 26.4366 17.6339 25.684 17.7216 25.299C17.8093 24.914 17.956 24.2664 18.0477 23.86L18.2144 23.1211L18.2338 25.5324L18.2533 27.9436L18.5158 27.9552L18.7783 27.9666V25.2814V22.596H18.3116C18.0549 22.596 17.8445 22.6092 17.8439 22.6252C17.8433 22.6412 17.7753 22.9519 17.6927 23.3155C17.6101 23.6792 17.4702 24.3005 17.3819 24.6962C17.1309 25.8212 16.9855 26.4589 16.9607 26.5435C16.9352 26.6304 16.9386 26.6428 16.6571 25.3962C16.5581 24.9577 16.4104 24.3189 16.3287 23.9767C16.2471 23.6345 16.1414 23.1838 16.0939 22.9752L16.0074 22.596H15.5455H15.0836V25.2814ZM20.6312 22.6641C20.6097 22.7405 20.5267 23.1133 20.1597 24.7831C19.6148 27.2615 19.4784 27.8912 19.4784 27.9265C19.4784 27.9466 19.6013 27.9631 19.7516 27.9631C20.079 27.9631 20.0421 28.0268 20.2135 27.1658C20.2816 26.8236 20.3457 26.5041 20.3558 26.456C20.3742 26.3694 20.3809 26.3685 21.0469 26.3685H21.7195L21.8655 27.0978C21.9458 27.4988 22.0203 27.8576 22.031 27.895C22.0473 27.9521 22.0978 27.9631 22.3438 27.9631H22.637L22.6098 27.8561C22.5949 27.7973 22.4697 27.2329 22.3316 26.6019C22.1935 25.9709 21.9671 24.9383 21.8286 24.3073C21.69 23.6763 21.549 23.0331 21.5153 22.878L21.454 22.596H21.0522C20.7027 22.596 20.6479 22.6049 20.6312 22.6641ZM22.6753 22.8386L22.6869 23.0822L23.2314 23.1016L23.7759 23.1211L23.7859 25.5421L23.7959 27.9631H24.0679H24.3398V25.5334V23.1038L24.894 23.093L25.4482 23.0822V22.8488V22.6155L24.056 22.6053L22.6638 22.5951L22.6753 22.8386ZM30.1347 25.2796V27.9631H31.282H32.4293V27.6908V27.4186H31.5737H30.7181V25.0073V22.596H30.4264H30.1347V25.2796ZM41.1021 25.2796V27.9665L41.3841 27.9551L41.6661 27.9436V25.2796V22.6155L41.3841 22.6041L41.1021 22.5926V25.2796ZM43.6573 22.6239C43.6475 22.6407 43.603 22.8206 43.5585 23.0239C43.514 23.2271 43.3464 23.9884 43.1861 24.7156C42.9034 25.9982 42.5082 27.8085 42.4911 27.8991C42.4855 27.9293 42.5755 27.9436 42.7716 27.9436H43.0605L43.2203 27.1658L43.3801 26.388H44.0564H44.7329L44.8925 27.1658L45.0522 27.9436L45.3329 27.9551C45.571 27.9648 45.6136 27.9569 45.6136 27.9032C45.6136 27.8683 45.4746 27.2069 45.3047 26.4333C45.1348 25.6597 44.931 24.7293 44.8519 24.3656C44.7727 24.002 44.6534 23.4594 44.5867 23.16L44.4655 22.6155L44.0704 22.6044C43.8531 22.5984 43.6671 22.6071 43.6573 22.6239ZM54.4514 25.2663L54.4614 27.9436L54.8864 27.9548C55.9812 27.9834 56.4976 27.7931 56.8582 27.2284C57.103 26.8448 57.2418 26.1471 57.2419 25.299C57.242 24.065 57.0401 23.3754 56.5531 22.9468C56.2387 22.67 56.0477 22.622 55.1903 22.6043L54.4414 22.5889L54.4514 25.2663ZM58.37 25.2801V27.9642L59.6243 27.9539L60.8785 27.9436V27.6908V27.4381L59.916 27.4277L58.9534 27.4172V26.4068V25.3962H59.6359H60.3183L60.3067 25.1532L60.2952 24.9101L59.6243 24.8994L58.9534 24.8888V23.9959V23.103L59.8771 23.0926L60.8007 23.0822L60.8123 22.8391L60.8239 22.596H59.597H58.37V25.2801ZM61.7925 25.2785V27.9665L62.0744 27.9551L62.3564 27.9436L62.3759 26.738L62.3953 25.5324L62.9592 25.5116C63.4695 25.4927 63.5417 25.481 63.7176 25.389C64.2635 25.1035 64.5465 24.4856 64.4449 23.8009C64.368 23.2828 64.1123 22.9282 63.6639 22.718C63.4527 22.619 63.4176 22.6151 62.6189 22.603L61.7925 22.5905V25.2785ZM69.2691 25.2666L69.2791 27.9436L69.5605 27.9551L69.842 27.9665L69.8522 26.7105L69.8625 25.4546L70.2353 25.4435L70.608 25.4325L71.0334 26.6881L71.4589 27.9436L71.7594 27.955C71.9246 27.9613 72.0599 27.9504 72.0599 27.931C72.0599 27.9115 71.8611 27.3101 71.6182 26.5946L71.1765 25.2937L71.3857 25.1842C71.6171 25.0631 71.7835 24.8769 71.9148 24.5924C71.9882 24.4333 72.0013 24.3388 72.0002 23.9767C71.9991 23.6042 71.9867 23.5237 71.9042 23.3544C71.7681 23.0748 71.4974 22.8194 71.2214 22.7103C71.0085 22.626 70.9224 22.6177 70.1247 22.6042L69.2591 22.5896L69.2691 25.2666ZM72.6203 22.6496C72.6089 22.679 72.6051 22.7884 72.6117 22.8927L72.6238 23.0822L73.1582 23.093L73.6927 23.1038L73.7027 25.5237L73.7128 27.9436L73.9947 27.9551L74.2767 27.9665V25.5341V23.1016H74.8212H75.3657V22.8488V22.596H74.0033C72.8821 22.596 72.6372 22.6055 72.6203 22.6496ZM76.1435 25.2796V27.9631H77.4075H78.6715V27.6908V27.4186H77.6992H76.7269V26.4074V25.3962H77.4075H78.0881V25.1434V24.8907H77.4075H76.7269V23.9968V23.103L77.6505 23.0926L78.5742 23.0822L78.5858 22.8391L78.5974 22.596H77.3705H76.1435V25.2796ZM49.3732 23.0256C49.1285 23.2181 49.1316 23.8838 49.3799 24.4684L49.4511 24.636L49.6365 24.3841C49.8776 24.0569 49.9502 23.9097 50.0075 23.6321C50.048 23.4358 50.0455 23.3805 49.9893 23.2334C49.9534 23.1395 49.8866 23.0364 49.8408 23.0043C49.7215 22.9208 49.4933 22.9312 49.3732 23.0256ZM27.2637 23.0893C27.0068 23.2158 26.8263 23.5631 26.7238 24.1279C26.6321 24.6338 26.6339 25.9464 26.727 26.4269C26.8709 27.1697 27.1266 27.4964 27.5641 27.4964C28.0124 27.4964 28.2636 27.1888 28.4117 26.459C28.498 26.0332 28.5095 24.5099 28.4292 24.1323C28.259 23.332 28.0157 23.0223 27.5594 23.0247C27.4678 23.0252 27.3347 23.0543 27.2637 23.0893ZM34.2628 23.09C34.0759 23.182 33.884 23.4943 33.7911 23.8576C33.6704 24.3294 33.619 25.1609 33.6702 25.8124C33.7596 26.95 33.9998 27.4405 34.491 27.4876C35.1424 27.5503 35.4346 26.9965 35.4888 25.5962C35.5237 24.6978 35.4229 23.8332 35.2414 23.4728C35.1635 23.3183 35.0033 23.1475 34.8717 23.0787C34.7307 23.0051 34.4235 23.0107 34.2628 23.09ZM66.4011 23.0966C66.0664 23.3045 65.9241 23.6525 65.8344 24.4823C65.7781 25.0041 65.8093 26.069 65.8935 26.4967C66.0389 27.2345 66.3467 27.5531 66.8491 27.4857C67.3059 27.4244 67.5491 26.903 67.6266 25.8189C67.6662 25.2642 67.6289 24.3813 67.5504 24.0156C67.4493 23.5453 67.2515 23.193 67.029 23.0874C66.8475 23.0013 66.5475 23.0057 66.4011 23.0966ZM8.88596 23.1016C8.87335 23.1337 8.74774 23.7288 8.60683 24.424C8.46597 25.1191 8.34109 25.7273 8.32938 25.7754L8.30803 25.8629H8.89564C9.21879 25.8629 9.48322 25.8524 9.48322 25.8396C9.48322 25.8055 8.93897 23.1282 8.92267 23.0822C8.91509 23.0608 8.89856 23.0695 8.88596 23.1016ZM21.0208 23.1279C21.0097 23.1669 20.9802 23.3039 20.9555 23.4322C20.9095 23.6702 20.5057 25.6165 20.4693 25.7754L20.4492 25.8629H21.0333C21.5932 25.8629 21.6174 25.8597 21.6174 25.7845C21.6174 25.7413 21.549 25.3869 21.4655 24.9969C21.3819 24.6069 21.2574 24.0166 21.1886 23.685C21.1199 23.3535 21.0587 23.0765 21.0524 23.0696C21.0462 23.0626 21.032 23.0888 21.0208 23.1279ZM44.0448 23.1016C44.0151 23.1881 43.4745 25.7936 43.4745 25.8501C43.4745 25.8571 43.737 25.8629 44.0579 25.8629C44.3787 25.8629 44.6413 25.8543 44.6413 25.8438C44.6413 25.8245 44.4461 24.873 44.1986 23.685C44.125 23.3321 44.0558 23.0695 44.0448 23.1016ZM4.4273 24.0176V24.9414L4.91201 24.9185C5.58363 24.8867 5.77828 24.7955 5.92907 24.442C6.01249 24.2465 6.014 23.7589 5.93179 23.5683C5.86396 23.4111 5.74799 23.2961 5.55516 23.1948C5.44949 23.1394 5.30808 23.1201 4.92317 23.1086L4.4273 23.0938V24.0176ZM55.0253 25.2557V27.4186H55.3151C55.7526 27.4186 55.9649 27.36 56.1648 27.184C56.4806 26.9061 56.6088 26.4704 56.6451 25.5518C56.697 24.2389 56.4996 23.5185 56.0095 23.2313C55.8456 23.1352 55.7766 23.1206 55.4245 23.1076L55.0253 23.0928V25.2557ZM62.3759 24.0545V25.0073H62.8155C63.2064 25.0073 63.2764 24.9966 63.4475 24.9105C63.6807 24.7931 63.8037 24.6154 63.8592 24.3151C63.9266 23.9504 63.8394 23.5487 63.6477 23.3401C63.4803 23.158 63.2886 23.1034 62.8134 23.1025L62.3759 23.1016V24.0545ZM69.843 24.0215V24.9414L70.3215 24.9188C70.8696 24.8929 71.0678 24.8317 71.2405 24.6349C71.3816 24.4742 71.438 24.2827 71.4344 23.9767C71.431 23.6826 71.3727 23.5211 71.2102 23.3549C71.0214 23.1618 70.8011 23.1016 70.2834 23.1016H69.843V24.0215ZM49.0761 25.6588C49.0095 25.739 48.8988 25.9181 48.8302 26.0568C48.7212 26.2773 48.7054 26.3483 48.7054 26.6207C48.7054 27.0326 48.8195 27.2452 49.1209 27.3954C49.474 27.5714 49.8546 27.5161 50.1521 27.2458L50.3257 27.088L50.1216 26.8352C49.8906 26.549 49.6 26.1151 49.3988 25.756C49.3239 25.6223 49.2479 25.5129 49.23 25.5129C49.212 25.5129 49.1427 25.5786 49.0761 25.6588Z" fill="#54565A"/>
</svg>
